%
M48
M72
T01C0.02362
T02C0.03200
T03C0.03937
T04C0.04000
%
T01
X191800Y96800
X191800Y96800
X196800Y111800
X196800Y111800
X196800Y126800
X196800Y126800
X176800Y126800
X176800Y126800
X236800Y136800
X236800Y136800
X266800Y126800
X266800Y126800
X276800Y121800
X241800Y111800
X241800Y111800
X296800Y131800
X296800Y131800
X326800Y156800
X326800Y156800
X371800Y161800
X371800Y161800
X346800Y176800
X331957Y172351
X291800Y186800
X291800Y186800
X246800Y181800
X246800Y181800
X231800Y191800
X231800Y191800
X216800Y191800
X216800Y191800
X231800Y161800
X231800Y161800
X401800Y161800
X401800Y161800
X456800Y161800
X456800Y161800
X481800Y156800
X481800Y156800
X486800Y146800
X486800Y146800
X476800Y136800
X476800Y126800
X476800Y116800
X476800Y116800
X461800Y111800
X501800Y86800
X601800Y86800
X601800Y86800
X606800Y116800
X606800Y116800
X601800Y131800
X601800Y131800
X656800Y131800
X656800Y131800
X566800Y156800
X566800Y156800
X541800Y156800
X531800Y156800
X531800Y156800
X586800Y171800
X586800Y171800
X581800Y181800
X581800Y181800
X621800Y171800
X621800Y171800
X696800Y171800
X696800Y171800
X706800Y186800
X706800Y186800
X761800Y166800
X761800Y166800
X741800Y161800
X741800Y161800
X811800Y181800
X811800Y181800
X791800Y191800
X791800Y191800
X791800Y201800
X791800Y201800
X761800Y221800
X761800Y221800
X751800Y226800
X706800Y221800
X706800Y221800
X696800Y221800
X696800Y221800
X586800Y231800
X586800Y231800
X576800Y246800
X576800Y246800
X551800Y296800
X636800Y306800
X636800Y306800
X636800Y316800
X636800Y316800
X636800Y326800
X636800Y326800
X636800Y336800
X636800Y336800
X691800Y331800
X691800Y331800
X691800Y321800
X691800Y321800
X691800Y311800
X691800Y311800
X691800Y301800
X691800Y341800
X691800Y341800
X741800Y361800
X741800Y361800
X751800Y361800
X751800Y361800
X756800Y351800
X756800Y351800
X771800Y371800
X771800Y371800
X781800Y381800
X801800Y396800
X771800Y421800
X771800Y421800
X781800Y431800
X781800Y431800
X766800Y451800
X766800Y451800
X766800Y461800
X776800Y476800
X776800Y476800
X786800Y486800
X786800Y486800
X711800Y476800
X696800Y481800
X696800Y481800
X716800Y451800
X666800Y416800
X666800Y416800
X661800Y416800
X661800Y416800
X691800Y386800
X691800Y386800
X686800Y376800
X671800Y376800
X671800Y376800
X636800Y371800
X731800Y371800
X731800Y371800
X756800Y401800
X756800Y401800
X811800Y306800
X841800Y301800
X841800Y301800
X856800Y296800
X856800Y296800
X861800Y291800
X861800Y291800
X861800Y286800
X861800Y286800
X846800Y291800
X846800Y291800
X901800Y266800
X911800Y261800
X911800Y261800
X936800Y261800
X936800Y261800
X966800Y251800
X966800Y251800
X1001800Y256800
X1006800Y266800
X1006800Y266800
X1016800Y276800
X1016800Y276800
X986800Y281800
X986800Y291800
X966800Y276800
X906800Y301800
X906800Y301800
X906800Y306800
X906800Y306800
X881800Y251800
X881800Y251800
X876800Y251800
X876800Y251800
X926800Y226800
X896800Y221800
X896800Y221800
X896800Y211800
X936800Y196800
X936800Y196800
X936800Y181800
X936800Y181800
X906800Y181800
X906800Y181800
X902824Y164477
X866800Y156800
X866800Y156800
X776800Y121800
X776800Y121800
X746800Y121800
X526800Y181800
X526800Y181800
X451800Y181800
X451800Y181800
X436800Y226800
X436800Y226800
X276800Y236800
X276800Y236800
X171800Y241800
X171800Y241800
X171800Y281800
X171800Y281800
X181800Y286800
X191800Y281800
X191800Y281800
X246800Y281800
X246800Y281800
X261800Y286800
X261800Y286800
X196800Y331800
X196800Y331800
X191800Y346800
X191800Y346800
X181800Y351800
X181800Y351800
X206800Y371800
X206800Y371800
X146800Y371800
X146800Y371800
X111800Y401800
X111800Y401800
X191800Y406800
X191800Y406800
X206800Y406800
X206800Y406800
X221800Y406800
X221800Y406800
X311800Y351800
X311800Y351800
X101800Y341800
X101800Y341800
X101800Y461800
X101800Y461800
X266800Y516800
X266800Y516800
X271800Y526800
X271800Y526800
X261800Y536800
X261800Y536800
X241800Y541800
X241800Y541800
X191800Y556800
X191800Y556800
X191800Y566800
X191800Y566800
X171800Y566800
X171800Y566800
X161800Y566800
X161800Y566800
X151800Y566800
X151800Y566800
X141800Y566800
X141800Y566800
X131800Y566800
X131800Y566800
X191800Y576800
X191800Y576800
X191800Y586800
X191800Y586800
X191800Y596800
X191800Y596800
X181800Y601800
X176800Y621800
X176800Y621800
X261800Y586800
X261800Y586800
X241800Y576800
X241800Y576800
X271800Y596800
X271800Y596800
X326800Y566800
X326800Y566800
X331800Y556800
X331800Y556800
X341800Y546800
X341800Y546800
X361800Y546800
X361800Y546800
X361800Y536800
X351800Y516800
X351800Y516800
X311800Y501800
X311800Y501800
X571800Y531800
X581800Y536800
X581800Y536800
X596800Y541800
X641800Y541800
X641800Y541800
X641800Y531800
X641800Y531800
X641800Y521800
X641800Y521800
X696800Y536800
X726800Y551800
X726800Y551800
X741800Y541800
X741800Y541800
X771800Y536800
X771800Y536800
X771800Y546800
X771800Y546800
X841800Y571800
X841800Y571800
X871800Y571800
X871800Y571800
X906800Y571800
X906800Y571800
X866800Y596800
X866800Y596800
X846800Y606800
X846800Y606800
X806800Y601800
X806800Y601800
X891800Y606800
X891800Y606800
X891800Y621800
X891800Y621800
X816800Y646800
X816800Y646800
X751800Y646800
X751800Y646800
X713847Y593611
X696800Y556800
X696800Y556800
X551800Y606800
X551800Y606800
X551800Y626800
X551800Y626800
X891800Y516800
X901800Y521800
X901800Y521800
X911800Y531800
X956800Y526800
X956800Y526800
X956800Y516800
X956800Y516800
X956800Y506800
X956800Y506800
X1051800Y501800
X1051800Y501800
X1061800Y501800
X1061800Y501800
X1061800Y511800
X1061800Y511800
X1051800Y511800
X1051800Y521800
X1051800Y521800
X1081800Y536800
X1081800Y536800
X1091800Y541800
X1091800Y541800
X1101800Y551800
X1101800Y551800
X1116800Y551800
X1116800Y551800
X1126800Y551800
X1126800Y551800
X1106800Y561800
X1106800Y561800
X1171800Y541800
X1171800Y541800
X1186800Y536800
X1186800Y536800
X1206800Y526800
X1206800Y526800
X1186800Y506800
X1186800Y506800
X1156800Y516800
X1156800Y516800
X1156800Y526800
X1156800Y526800
X1131800Y526800
X1131800Y526800
X1131800Y486800
X1131800Y486800
X1156800Y486800
X1156800Y486800
X1166800Y486800
X1166800Y486800
X1191800Y491800
X1191800Y491800
X1156800Y471800
X1156800Y471800
X1131800Y476800
X1131800Y476800
X1151800Y461800
X1151800Y461800
X1216800Y461800
X1216800Y461800
X1221800Y451800
X1166800Y436800
X1166800Y436800
X1131800Y436800
X1131800Y436800
X1221800Y411800
X1221800Y411800
X1246800Y406800
X1246800Y406800
X1251800Y396800
X1251800Y396800
X1256800Y391800
X1256800Y391800
X1261800Y381800
X1261800Y381800
X1216800Y381800
X1216800Y381800
X1216800Y391800
X1336800Y321800
X1336800Y321800
X1336800Y311800
X1336800Y311800
X1341800Y301800
X1376800Y311800
X1376800Y311800
X1376800Y321800
X1376800Y321800
X1451800Y301800
X1451800Y301800
X1456800Y286800
X1411800Y286800
X1411800Y286800
X1401800Y291800
X1401800Y291800
X1401800Y281800
X1401800Y281800
X1396800Y266800
X1396800Y266800
X1386800Y266800
X1386800Y266800
X1376800Y256800
X1376800Y256800
X1326800Y286800
X1326800Y286800
X1301800Y286800
X1301800Y286800
X1286800Y291800
X1286800Y291800
X1261800Y291800
X1261800Y291800
X1246800Y281800
X1246800Y281800
X1261800Y271800
X1261800Y271800
X1271800Y271800
X1271800Y271800
X1286800Y261800
X1286800Y261800
X1286800Y241800
X1286800Y241800
X1281800Y221800
X1281800Y221800
X1261800Y216800
X1261800Y216800
X1301800Y206800
X1316800Y201800
X1316800Y201800
X1341800Y201800
X1341800Y201800
X1336800Y216800
X1336800Y216800
X1356800Y216800
X1356800Y216800
X1421800Y216800
X1421800Y216800
X1426800Y221800
X1426800Y221800
X1441800Y216800
X1441800Y216800
X1471800Y216800
X1471800Y216800
X1471800Y206800
X1471800Y206800
X1481800Y211800
X1481800Y211800
X1501800Y216800
X1501800Y216800
X1491800Y221800
X1491800Y221800
X1526800Y226800
X1536800Y216800
X1536800Y216800
X1491800Y191800
X1491800Y191800
X1491800Y186800
X1491800Y186800
X1481800Y191800
X1481800Y191800
X1486800Y196800
X1466800Y196800
X1466800Y196800
X1466800Y171800
X1466800Y171800
X1451800Y166800
X1451800Y166800
X1451800Y156800
X1451800Y156800
X1461800Y151800
X1461800Y151800
X1481800Y146800
X1481800Y146800
X1501800Y146800
X1501800Y146800
X1506800Y146800
X1501800Y156800
X1501800Y156800
X1521800Y161800
X1526800Y146800
X1526800Y146800
X1536800Y146800
X1536800Y146800
X1511800Y136800
X1511800Y136800
X1526800Y131800
X1526800Y131800
X1481800Y126800
X1481800Y126800
X1451800Y121800
X1451800Y121800
X1436800Y136800
X1421800Y141800
X1421800Y141800
X1371800Y126800
X1361800Y101800
X1301800Y131800
X1301800Y131800
X1301800Y146800
X1301800Y146800
X1286800Y156800
X1286800Y156800
X1241800Y141800
X1241800Y141800
X1231800Y141800
X1231800Y141800
X1231800Y156800
X1231800Y156800
X1236800Y166800
X1236800Y166800
X1176800Y141800
X1176800Y141800
X1116800Y126800
X1116800Y126800
X1076800Y161800
X1076800Y161800
X1031800Y181800
X1031800Y181800
X966800Y231800
X966800Y231800
X1011800Y236800
X1011800Y236800
X1021800Y236800
X1021800Y236800
X1091800Y236800
X1091800Y236800
X1101800Y236800
X1101800Y236800
X1101800Y256800
X1101800Y256800
X1091800Y261800
X1091800Y261800
X1176800Y226800
X1226800Y251800
X1226800Y251800
X1236800Y241800
X1236800Y241800
X1241800Y256800
X1241800Y256800
X1221800Y276800
X1221800Y276800
X1221800Y286800
X1221800Y286800
X1221800Y296800
X1261800Y306800
X1261800Y306800
X1471800Y346800
X1471800Y346800
X1471800Y371800
X1471800Y371800
X1716800Y301800
X1716800Y301800
X1741800Y311800
X1741800Y311800
X1741800Y321800
X1741800Y321800
X1741800Y331800
X1741800Y331800
X1741800Y341800
X1741800Y341800
X1741800Y351800
X1741800Y351800
X1847706Y432194
X1461800Y571800
X1461800Y571800
X1416800Y596800
X1416800Y596800
X1401800Y601800
X1401800Y601800
X1401800Y626800
X1401800Y626800
X1331800Y646800
X1331800Y646800
X1321800Y646800
X1321800Y646800
X1221800Y621800
X1221800Y621800
X1161800Y621800
X1161800Y621800
X1116800Y626800
X1116800Y626800
X1066800Y616800
X1066800Y616800
X1006800Y586800
X1006800Y566800
X1006800Y566800
X1051800Y491800
X1051800Y491800
X1061800Y491800
X1061800Y491800
X1276800Y471800
X1291800Y471800
X1291800Y471800
X1288650Y593611
X1431800Y651800
X1471800Y641800
X1471800Y641800
X1486800Y626800
X1486800Y626800
X1486800Y616800
X1486800Y616800
X1511800Y271800
X1511800Y271800
X1531800Y271800
X1551800Y246800
X1551800Y246800
X1561800Y246800
X1561800Y246800
X1571800Y246800
X1571800Y246800
X1581800Y246800
X1581800Y246800
X1591800Y246800
X1591800Y246800
X1631800Y271800
X1631800Y271800
X1726800Y231800
X1726800Y231800
X1751800Y231800
X1751800Y231800
X1781800Y226800
X1781800Y226800
X1726800Y211800
X1726800Y211800
X1621800Y151800
X1611800Y141800
X1595737Y140855
X1601800Y126800
X1601800Y126800
X1611800Y126800
X1611800Y126800
X1586800Y126800
X1586800Y126800
X1571800Y91800
X1561800Y91800
X1561800Y91800
X1531800Y91800
X1531800Y91800
X1516800Y86800
X1516800Y86800
X1501800Y91800
X1601800Y91800
X1541800Y176800
X1541800Y176800
X1536800Y176800
X1536800Y176800
X1491800Y176800
X1491800Y176800
X1316800Y181800
X1316800Y181800
X1306800Y186800
X1306800Y186800
X1491800Y251800
X1491800Y251800
X1501800Y251800
X1501800Y251800
T02
X1453729Y274713
X1443729Y274713
X1433729Y274713
X1423729Y274713
X1413729Y274713
X1251800Y226800
X1251800Y216800
X1251800Y206800
X1261800Y206800
X1281800Y206800
X1281800Y196800
X1281800Y186800
X1261800Y186800
X1251800Y186800
X1251800Y196800
X1261800Y196800
X1221800Y196800
X1211800Y196800
X1211800Y186800
X1221800Y186800
X1191800Y186800
X1191800Y196800
X1191800Y206800
X1191800Y216800
X1211800Y216800
X1221800Y216800
X1221800Y206800
X1211800Y206800
X1211800Y226800
X1221800Y226800
X1191800Y226800
X1150383Y207076
X1140383Y207076
X1130383Y207076
X1120383Y207076
X1110383Y207076
X1101761Y207076
X1091761Y207076
X1081761Y207076
X1071761Y207076
X1061761Y207076
X1031800Y211800
X1031800Y201800
X1021800Y201800
X1011800Y201800
X1001800Y201800
X1001800Y211800
X1011800Y211800
X1021800Y211800
X991800Y211800
X981800Y211800
X981800Y201800
X991800Y201800
X971800Y201800
X961800Y201800
X961800Y171800
X971800Y171800
X981800Y171800
X991800Y171800
X1001800Y171800
X1011800Y171800
X1021800Y171800
X1031800Y171800
X1021800Y161800
X1011800Y161800
X1001800Y161800
X991800Y161800
X981800Y161800
X971800Y161800
X961800Y161800
X961800Y141800
X971800Y141800
X981800Y141800
X991800Y141800
X1001800Y141800
X1011800Y141800
X1021800Y141800
X1061761Y147076
X1071761Y147076
X1081761Y147076
X1091761Y147076
X1101761Y147076
X1110383Y147076
X1120383Y147076
X1130383Y147076
X1140383Y147076
X1150383Y147076
X1191800Y166800
X1191800Y176800
X1211800Y176800
X1221800Y176800
X1221800Y166800
X1211800Y166800
X1221800Y156800
X1251800Y156800
X1261800Y156800
X1281800Y156800
X1281800Y166800
X1281800Y176800
X1261800Y176800
X1251800Y176800
X1251800Y166800
X1261800Y166800
X1343769Y166800
X1343769Y176800
X1346800Y191800
X1346800Y211800
X1431800Y211800
X1431800Y191800
X1427115Y176800
X1427115Y166800
X1510422Y166800
X1510422Y176800
X1511800Y191800
X1511800Y211800
X1596800Y211800
X1596800Y191800
X1593769Y176800
X1593769Y166800
X1677115Y166800
X1677115Y176800
X1676800Y191800
X1676800Y211800
X1761800Y211800
X1761800Y191800
X1760422Y176800
X1760422Y166800
X1841800Y196800
X1841800Y216800
X1836800Y241800
X1826800Y241800
X1816800Y241800
X1806800Y241800
X1796800Y241800
X1786800Y241800
X1776800Y241800
X1766800Y241800
X1756800Y241800
X1746800Y241800
X1736800Y241800
X1710225Y274713
X1700225Y274713
X1690225Y274713
X1680225Y274713
X1670225Y274713
X1736800Y301800
X1746800Y301800
X1756800Y301800
X1766800Y301800
X1776800Y301800
X1786800Y301800
X1796800Y301800
X1806800Y301800
X1816800Y301800
X1826800Y301800
X1836800Y301800
X1846800Y301800
X1846800Y331800
X1856800Y331800
X1866800Y331800
X1836800Y331800
X1826800Y331800
X1826800Y351800
X1836800Y351800
X1836800Y361800
X1826800Y361800
X1846800Y361800
X1856800Y361800
X1856800Y351800
X1846800Y351800
X1866800Y351800
X1866800Y361800
X1876800Y361800
X1886800Y361800
X1896800Y361800
X1896800Y391800
X1886800Y391800
X1886800Y401800
X1896800Y401800
X1876800Y401800
X1866800Y401800
X1866800Y391800
X1876800Y391800
X1856800Y391800
X1846800Y391800
X1846800Y401800
X1856800Y401800
X1836800Y401800
X1836800Y391800
X1826800Y391800
X1836800Y421800
X1846800Y421800
X1856800Y421800
X1866800Y421800
X1876800Y421800
X1886800Y421800
X1896800Y421800
X1896800Y496800
X1886800Y496800
X1876800Y496800
X1866800Y496800
X1856800Y496800
X1846800Y496800
X1836800Y496800
X1826800Y496800
X1826800Y526800
X1836800Y526800
X1836800Y536800
X1826800Y536800
X1846800Y536800
X1856800Y536800
X1856800Y526800
X1846800Y526800
X1866800Y526800
X1876800Y526800
X1876800Y536800
X1866800Y536800
X1886800Y536800
X1886800Y526800
X1896800Y526800
X1886800Y556800
X1876800Y556800
X1866800Y556800
X1856800Y556800
X1846800Y556800
X1836800Y556800
X1826800Y556800
X1710225Y581800
X1700225Y581800
X1690225Y581800
X1680225Y581800
X1670225Y581800
X1506800Y636800
X1506800Y646800
X1486800Y646800
X1486800Y636800
X1446800Y631800
X1446800Y641800
X1426800Y641800
X1426800Y631800
X1426800Y621800
X1426800Y611800
X1426800Y601800
X1446800Y601800
X1446800Y611800
X1446800Y621800
X1391800Y631800
X1381800Y631800
X1371800Y631800
X1361800Y631800
X1351800Y631800
X1341800Y631800
X1331800Y631800
X1321800Y631800
X1251800Y631800
X1241800Y631800
X1231800Y631800
X1221800Y631800
X1211800Y631800
X1201800Y631800
X1191800Y631800
X1181800Y631800
X1146800Y631800
X1146800Y641800
X1126800Y641800
X1126800Y631800
X1126800Y621800
X1126800Y611800
X1126800Y601800
X1146800Y601800
X1146800Y611800
X1146800Y621800
X1181800Y601800
X1191800Y601800
X1201800Y601800
X1211800Y601800
X1221800Y601800
X1231800Y601800
X1241800Y601800
X1251800Y601800
X1251800Y581800
X1241800Y581800
X1231800Y581800
X1221800Y581800
X1211800Y581800
X1201800Y581800
X1191800Y581800
X1147824Y581800
X1137824Y581800
X1127824Y581800
X1117824Y581800
X1107824Y581800
X1126800Y591800
X1146800Y591800
X1096800Y601800
X1086800Y601800
X1076800Y601800
X1066800Y601800
X1056800Y601800
X1046800Y601800
X1036800Y601800
X1026800Y601800
X981800Y601800
X971800Y601800
X961800Y601800
X951800Y601800
X941800Y601800
X931800Y601800
X921800Y601800
X911800Y601800
X891328Y581800
X881328Y581800
X871328Y581800
X861328Y581800
X851328Y581800
X836800Y576800
X836800Y586800
X816800Y586800
X816800Y576800
X766800Y576800
X756800Y576800
X746800Y576800
X736800Y576800
X726800Y576800
X726800Y556800
X736800Y556800
X746800Y556800
X756800Y556800
X766800Y556800
X706800Y546800
X706800Y526800
X721721Y515934
X721721Y505934
X706800Y466800
X696800Y466800
X676800Y466800
X676800Y456800
X676800Y446800
X696800Y446800
X696800Y456800
X706800Y456800
X706800Y446800
X736800Y446800
X736800Y456800
X746800Y446800
X766800Y446800
X766800Y436800
X766800Y426800
X746800Y426800
X746800Y436800
X736800Y436800
X736800Y426800
X706800Y426800
X706800Y436800
X696800Y436800
X696800Y426800
X676800Y426800
X676800Y436800
X676800Y416800
X676800Y406800
X696800Y406800
X696800Y416800
X706800Y416800
X706800Y406800
X706800Y396800
X736800Y396800
X736800Y406800
X736800Y416800
X746800Y416800
X746800Y406800
X746800Y396800
X766800Y396800
X766800Y406800
X766800Y416800
X736800Y466800
X921800Y551800
X931800Y551800
X941800Y551800
X951800Y551800
X961800Y551800
X971800Y551800
X981800Y551800
X1026800Y561800
X1036800Y561800
X1046800Y561800
X1056800Y561800
X1066800Y561800
X1066800Y581800
X1056800Y581800
X1046800Y581800
X1036800Y581800
X1026800Y581800
X981800Y571800
X971800Y571800
X961800Y571800
X951800Y571800
X941800Y571800
X931800Y571800
X921800Y571800
X836800Y596800
X836800Y606800
X816800Y606800
X816800Y596800
X796800Y601800
X786800Y601800
X776800Y601800
X766800Y601800
X756800Y601800
X746800Y601800
X736800Y601800
X726800Y601800
X666800Y601800
X656800Y601800
X646800Y601800
X636800Y601800
X626800Y601800
X616800Y601800
X606800Y601800
X596800Y601800
X586800Y581800
X576800Y581800
X566800Y581800
X556800Y581800
X546800Y581800
X496800Y581800
X476800Y581800
X476800Y571800
X476800Y561800
X496800Y561800
X496800Y571800
X496800Y551800
X476800Y551800
X381800Y556800
X371800Y556800
X361800Y556800
X351800Y556800
X341800Y556800
X341800Y576800
X351800Y576800
X361800Y576800
X371800Y576800
X381800Y576800
X330304Y581800
X320304Y581800
X310304Y581800
X300304Y581800
X290304Y581800
X341800Y601800
X351800Y601800
X361800Y601800
X371800Y601800
X381800Y601800
X391800Y601800
X401800Y601800
X411800Y601800
X476800Y601800
X476800Y611800
X476800Y621800
X496800Y621800
X496800Y611800
X496800Y601800
X411800Y631800
X401800Y631800
X391800Y631800
X381800Y631800
X371800Y631800
X361800Y631800
X351800Y631800
X341800Y631800
X216800Y596800
X196800Y596800
X196800Y586800
X196800Y576800
X216800Y576800
X216800Y586800
X216800Y566800
X216800Y556800
X196800Y556800
X196800Y566800
X171800Y556800
X161800Y556800
X151800Y556800
X141800Y556800
X131800Y556800
X121800Y556800
X111800Y556800
X101800Y556800
X101800Y526800
X111800Y526800
X121800Y526800
X131800Y526800
X141800Y526800
X151800Y526800
X161800Y526800
X171800Y526800
X161800Y516800
X151800Y516800
X141800Y516800
X131800Y516800
X121800Y516800
X111800Y516800
X101800Y516800
X101800Y496800
X111800Y496800
X121800Y496800
X131800Y496800
X141800Y496800
X151800Y496800
X161800Y496800
X161800Y471800
X171800Y471800
X151800Y471800
X141800Y471800
X131800Y471800
X121800Y471800
X111800Y471800
X101800Y471800
X101800Y441800
X111800Y441800
X111800Y431800
X121800Y431800
X131800Y431800
X131800Y441800
X121800Y441800
X141800Y441800
X151800Y441800
X151800Y431800
X141800Y431800
X161800Y431800
X171800Y431800
X171800Y441800
X161800Y441800
X161800Y411800
X171800Y411800
X151800Y411800
X141800Y411800
X131800Y411800
X121800Y411800
X111800Y411800
X121800Y351800
X131800Y351800
X141800Y351800
X151800Y351800
X161800Y351800
X171800Y351800
X171800Y331800
X161800Y331800
X161800Y321800
X171800Y321800
X151800Y321800
X141800Y321800
X141800Y331800
X151800Y331800
X131800Y331800
X121800Y331800
X121800Y321800
X131800Y321800
X111800Y321800
X101800Y321800
X101800Y291800
X111800Y291800
X111800Y281800
X101800Y281800
X121800Y281800
X131800Y281800
X131800Y291800
X121800Y291800
X141800Y291800
X151800Y291800
X151800Y281800
X141800Y281800
X161800Y281800
X161800Y291800
X171800Y291800
X161800Y261800
X151800Y261800
X141800Y261800
X131800Y261800
X121800Y261800
X111800Y261800
X101800Y261800
X190698Y207076
X200698Y207076
X210698Y207076
X220698Y207076
X230698Y207076
X239320Y207076
X249320Y207076
X259320Y207076
X269320Y207076
X279320Y207076
X316800Y191800
X316800Y171800
X306800Y171800
X296800Y161800
X306800Y151800
X316800Y151800
X316800Y161800
X346800Y161800
X346800Y151800
X356800Y151800
X376800Y151800
X387548Y147076
X397548Y147076
X407548Y147076
X417548Y147076
X427548Y147076
X436170Y147076
X446170Y147076
X456170Y147076
X466170Y147076
X476170Y147076
X491800Y146800
X491800Y136800
X511800Y136800
X511800Y146800
X511800Y156800
X521800Y156800
X521800Y146800
X521800Y136800
X551800Y136800
X551800Y146800
X551800Y156800
X561800Y146800
X561800Y136800
X581800Y136800
X581800Y146800
X596209Y147076
X606209Y147076
X616209Y147076
X626209Y147076
X636209Y147076
X644871Y147076
X654871Y147076
X664871Y147076
X674871Y147076
X684871Y147076
X693493Y147076
X703493Y147076
X713493Y147076
X723493Y147076
X733493Y147076
X742115Y147076
X752115Y147076
X762115Y147076
X772115Y147076
X782115Y147076
X796800Y146800
X796800Y136800
X816800Y136800
X816800Y146800
X816800Y156800
X826800Y156800
X826800Y146800
X826800Y136800
X856800Y136800
X856800Y146800
X856800Y156800
X866800Y146800
X866800Y136800
X886800Y136800
X886800Y146800
X886800Y126800
X886800Y116800
X866800Y116800
X866800Y126800
X856800Y126800
X856800Y116800
X826800Y116800
X826800Y126800
X816800Y126800
X816800Y116800
X796800Y116800
X796800Y126800
X796800Y106800
X816800Y106800
X826800Y106800
X826800Y96800
X856800Y96800
X856800Y106800
X866800Y106800
X866800Y96800
X886800Y96800
X886800Y106800
X796800Y156800
X796800Y166800
X816800Y166800
X826800Y166800
X856800Y166800
X856800Y181800
X866800Y181800
X886800Y181800
X886800Y191800
X886800Y201800
X886800Y211800
X866800Y211800
X866800Y201800
X866800Y191800
X856800Y191800
X856800Y201800
X856800Y211800
X826800Y211800
X826800Y201800
X826800Y191800
X816800Y191800
X816800Y201800
X816800Y211800
X796800Y211800
X796800Y201800
X796800Y191800
X782115Y207076
X772115Y207076
X762115Y207076
X752115Y207076
X742115Y207076
X733493Y207076
X723493Y207076
X713493Y207076
X703493Y207076
X693493Y207076
X684871Y207076
X674871Y207076
X664871Y207076
X654871Y207076
X644871Y207076
X636209Y207076
X626209Y207076
X616209Y207076
X606209Y207076
X596209Y207076
X576800Y211800
X576800Y201800
X576800Y191800
X556800Y191800
X546800Y191800
X546800Y201800
X556800Y201800
X546800Y211800
X546800Y221800
X546800Y231800
X556800Y231800
X566800Y221800
X576800Y231800
X566800Y241800
X556800Y251800
X546800Y251800
X546800Y241800
X516800Y241800
X506800Y241800
X506800Y251800
X516800Y251800
X486800Y251800
X486800Y241800
X486800Y231800
X486800Y221800
X506800Y221800
X516800Y221800
X516800Y231800
X506800Y231800
X506800Y211800
X516800Y211800
X516800Y201800
X506800Y201800
X506800Y191800
X516800Y191800
X486800Y191800
X486800Y201800
X486800Y211800
X476170Y207076
X466170Y207076
X456170Y207076
X446170Y207076
X436170Y207076
X427548Y207076
X417548Y207076
X407548Y207076
X397548Y207076
X387548Y207076
X516800Y181800
X546800Y181800
X556800Y181800
X576800Y181800
X491800Y156800
X491800Y126800
X491800Y116800
X511800Y116800
X511800Y126800
X521800Y126800
X521800Y116800
X551800Y116800
X551800Y126800
X561800Y126800
X561800Y116800
X581800Y116800
X581800Y126800
X581800Y106800
X581800Y96800
X561800Y96800
X561800Y106800
X551800Y106800
X551800Y96800
X521800Y96800
X521800Y106800
X511800Y106800
X491800Y106800
X521800Y86800
X551800Y86800
X561800Y86800
X581800Y86800
X376800Y91800
X376800Y101800
X356800Y101800
X346800Y101800
X346800Y91800
X356800Y91800
X316800Y91800
X316800Y101800
X316800Y111800
X306800Y111800
X306800Y121800
X316800Y121800
X286800Y121800
X286800Y111800
X286800Y131800
X296800Y141800
X306800Y131800
X316800Y131800
X316800Y141800
X346800Y141800
X356800Y141800
X356800Y131800
X346800Y131800
X376800Y131800
X376800Y141800
X376800Y121800
X376800Y111800
X356800Y111800
X346800Y111800
X346800Y121800
X356800Y121800
X279320Y147076
X269320Y147076
X259320Y147076
X249320Y147076
X239320Y147076
X230698Y147076
X220698Y147076
X210698Y147076
X200698Y147076
X190698Y147076
X176800Y141800
X166800Y141800
X156800Y141800
X146800Y141800
X146800Y131800
X156800Y131800
X136800Y131800
X126800Y131800
X126800Y141800
X136800Y141800
X116800Y141800
X106800Y141800
X106800Y131800
X116800Y131800
X116800Y111800
X106800Y111800
X126800Y111800
X136800Y111800
X146800Y111800
X156800Y111800
X156800Y171800
X146800Y171800
X146800Y181800
X156800Y181800
X166800Y181800
X176800Y181800
X176800Y171800
X166800Y171800
X136800Y171800
X126800Y171800
X126800Y181800
X136800Y181800
X116800Y181800
X116800Y171800
X106800Y171800
X116800Y201800
X126800Y201800
X136800Y201800
X146800Y201800
X156800Y201800
X166800Y201800
X176800Y201800
X290304Y274713
X300304Y274713
X310304Y274713
X320304Y274713
X330304Y274713
X546800Y274713
X556800Y274713
X566800Y274713
X576800Y274713
X586800Y274713
X702036Y348454
X702036Y358454
X851328Y274713
X861328Y274713
X871328Y274713
X881328Y274713
X891328Y274713
X856800Y251800
X856800Y241800
X826800Y241800
X826800Y251800
X816800Y251800
X816800Y241800
X796800Y241800
X796800Y251800
X796800Y231800
X796800Y221800
X816800Y221800
X816800Y231800
X826800Y231800
X826800Y221800
X856800Y221800
X856800Y231800
X866800Y231800
X866800Y221800
X886800Y221800
X886800Y231800
X981800Y231800
X991800Y231800
X1001800Y231800
X1011800Y231800
X1021800Y231800
X1031800Y231800
X1107824Y274713
X1117824Y274713
X1127824Y274713
X1137824Y274713
X1147824Y274713
X1276839Y348454
X1276839Y358454
X1266800Y391800
X1266800Y401800
X1296800Y401800
X1296800Y391800
X1296800Y411800
X1296800Y421800
X1266800Y421800
X1266800Y411800
X1246800Y421800
X1226800Y421800
X1226800Y431800
X1226800Y441800
X1246800Y441800
X1246800Y431800
X1266800Y431800
X1266800Y441800
X1296800Y441800
X1296800Y431800
X1296800Y451800
X1296800Y461800
X1266800Y461800
X1266800Y451800
X1246800Y451800
X1246800Y461800
X1226800Y461800
X1226800Y451800
X1296524Y505934
X1296524Y515934
X1291800Y541800
X1291800Y561800
X1321800Y571800
X1331800Y571800
X1341800Y571800
X1351800Y571800
X1361800Y571800
X1371800Y571800
X1381800Y571800
X1413729Y581800
X1423729Y581800
X1433729Y581800
X1443729Y581800
X1453729Y581800
X1391800Y601800
X1381800Y601800
X1371800Y601800
X1361800Y601800
X1351800Y601800
X1341800Y601800
X1331800Y601800
X1321800Y601800
X1321800Y591800
X1331800Y591800
X1341800Y591800
X1351800Y591800
X1361800Y591800
X1371800Y591800
X1381800Y591800
X1251800Y561800
X1241800Y561800
X1231800Y561800
X1221800Y561800
X1211800Y561800
X1201800Y561800
X1191800Y561800
X1096800Y631800
X1086800Y631800
X1076800Y631800
X1066800Y631800
X1056800Y631800
X1046800Y631800
X1036800Y631800
X1026800Y631800
X981800Y631800
X971800Y631800
X961800Y631800
X951800Y631800
X941800Y631800
X931800Y631800
X921800Y631800
X911800Y631800
X836800Y626800
X836800Y616800
X816800Y616800
X816800Y626800
X796800Y631800
X786800Y631800
X776800Y631800
X766800Y631800
X756800Y631800
X746800Y631800
X736800Y631800
X726800Y631800
X666800Y631800
X656800Y631800
X646800Y631800
X636800Y631800
X626800Y631800
X616800Y631800
X606800Y631800
X596800Y631800
X606800Y576800
X616800Y576800
X626800Y576800
X636800Y576800
X646800Y576800
X656800Y576800
X666800Y576800
X666800Y556800
X656800Y556800
X646800Y556800
X636800Y556800
X626800Y556800
X616800Y556800
X606800Y556800
X816800Y636800
X836800Y636800
X1126800Y651800
X1146800Y651800
X1846800Y241800
X1843769Y176800
X1843769Y166800
X826800Y181800
T03
X133611Y626800
X109595Y626800
X121800Y645698
T04
X1421800Y111800
X1431800Y111800
X1441800Y111800
X1451800Y111800
X1461800Y111800
X1471800Y111800
X1481800Y111800
X1491800Y111800
X1501800Y111800
X1511800Y111800
X1521800Y111800
X1531800Y111800
X1541800Y111800
X1551800Y111800
X1561800Y111800
X1571800Y111800
X1581800Y111800
X1591800Y111800
X1601800Y111800
X1611800Y111800
X1611800Y101800
X1601800Y101800
X1591800Y101800
X1581800Y101800
X1571800Y101800
X1561800Y101800
X1551800Y101800
X1541800Y101800
X1531800Y101800
X1521800Y101800
X1511800Y101800
X1501800Y101800
X1491800Y101800
X1481800Y101800
X1471800Y101800
X1461800Y101800
X1451800Y101800
X1441800Y101800
X1431800Y101800
X1421800Y101800
M30
